%YAML 1.1
%TAG !u! tag:unity3d.com,2011:
--- !u!114 &11400000
MonoBehaviour:
  m_ObjectHideFlags: 0
  m_CorrespondingSourceObject: {fileID: 0}
  m_PrefabInstance: {fileID: 0}
  m_PrefabAsset: {fileID: 0}
  m_GameObject: {fileID: 0}
  m_Enabled: 1
  m_EditorHideFlags: 0
  m_Script: {fileID: 11500000, guid: b38805289232bfc45954f4c4531fb235, type: 3}
  m_Name: UI_State_LevelCompleted
  m_EditorClassIdentifier: 
  _system: {fileID: 11400000, guid: f9de6220addebc84882aa364ce313390, type: 2}
  isPopUp: 0
  subStates: []
